[
    {
        "name" : "Ivan",
        "surname" : "Ivanov",
        "patronymic" : "Ivanovich",
        "weight_category" : "Heavyweight"
    },
    {
        "name" : "Petr",
        "surname" : "Petrov",
        "patronymic" : "Petrovich",
        "weight_category" : "Heavyweight"
    }
]